%YAML 1.1
%TAG !u! tag:unity3d.com,2011:
--- !u!213 &21300000
Sprite:
  m_ObjectHideFlags: 0
  m_PrefabParentObject: {fileID: 0}
  m_PrefabInternal: {fileID: 0}
  m_Name: KeyVisualPetal
  m_Rect:
    serializedVersion: 2
    x: 0
    y: 0
    width: 1334
    height: 1121.8507
  m_Offset: {x: 0, y: 2.5746667}
  m_Border: {x: 0, y: 0, z: 0, w: 0}
  m_PixelsToUnits: 100
  m_Pivot: {x: 0.5, y: 0.502295}
  m_Extrude: 1
  m_IsPolygon: 0
  m_AtlasName:
  m_PackingTag:
  m_RD:
    texture: {fileID: 2800000, guid: 7d0ff48b6f4ed444da26a2139a0e5fea, type: 3}
    alphaTexture: {fileID: 0}
    vertices:
    - serializedVersion: 2
      pos: {x: -5.5, y: -5.245, z: 0}
    - serializedVersion: 2
      pos: {x: -5.54, y: -5.635, z: 0}
    - serializedVersion: 2
      pos: {x: -5.5, y: -5.545, z: 0}
    - serializedVersion: 2
      pos: {x: -5.62, y: -5.215, z: 0}
    - serializedVersion: 2
      pos: {x: -5.81, y: -5.215, z: 0}
    - serializedVersion: 2
      pos: {x: -6.12, y: -5.305, z: 0}
    - serializedVersion: 2
      pos: {x: -6.12, y: -5.635, z: 0}
    - serializedVersion: 2
      pos: {x: -3.14, y: -4.515, z: 0}
    - serializedVersion: 2
      pos: {x: -2.75, y: -4.445, z: 0}
    - serializedVersion: 2
      pos: {x: -2.94, y: -4.445, z: 0}
    - serializedVersion: 2
      pos: {x: -3.19, y: -4.545, z: 0}
    - serializedVersion: 2
      pos: {x: -3.19, y: -4.705, z: 0}
    - serializedVersion: 2
      pos: {x: -3.31, y: -5.175, z: 0}
    - serializedVersion: 2
      pos: {x: -3.01, y: -5.635, z: 0}
    - serializedVersion: 2
      pos: {x: -3.01, y: -5.385, z: 0}
    - serializedVersion: 2
      pos: {x: -3.67, y: -5.175, z: 0}
    - serializedVersion: 2
      pos: {x: -3.71, y: -5.235, z: 0}
    - serializedVersion: 2
      pos: {x: -3.71, y: -5.635, z: 0}
    - serializedVersion: 2
      pos: {x: 1.14, y: -5.415, z: 0}
    - serializedVersion: 2
      pos: {x: 1.26, y: -5.635, z: 0}
    - serializedVersion: 2
      pos: {x: 1.26, y: -5.455, z: 0}
    - serializedVersion: 2
      pos: {x: 0.6, y: -5.415, z: 0}
    - serializedVersion: 2
      pos: {x: 0.59, y: -5.485, z: 0}
    - serializedVersion: 2
      pos: {x: 0.58, y: -5.565, z: 0}
    - serializedVersion: 2
      pos: {x: 0.58, y: -5.635, z: 0}
    - serializedVersion: 2
      pos: {x: 5.18, y: -5.545, z: 0}
    - serializedVersion: 2
      pos: {x: 5.2, y: -5.635, z: 0}
    - serializedVersion: 2
      pos: {x: 5.2, y: -5.625, z: 0}
    - serializedVersion: 2
      pos: {x: 5.07, y: -5.465, z: 0}
    - serializedVersion: 2
      pos: {x: 4.43, y: -5.125, z: 0}
    - serializedVersion: 2
      pos: {x: 4, y: -5.025, z: 0}
    - serializedVersion: 2
      pos: {x: 3.88, y: -5.635, z: 0}
    - serializedVersion: 2
      pos: {x: 3.67, y: -5.025, z: 0}
    - serializedVersion: 2
      pos: {x: 3.62, y: -5.115, z: 0}
    - serializedVersion: 2
      pos: {x: 3.62, y: -5.395, z: 0}
    - serializedVersion: 2
      pos: {x: 2.74, y: 1.885, z: 0}
    - serializedVersion: 2
      pos: {x: 2.89, y: 1.555, z: 0}
    - serializedVersion: 2
      pos: {x: 2.89, y: 1.845, z: 0}
    - serializedVersion: 2
      pos: {x: 2.56, y: 1.235, z: 0}
    - serializedVersion: 2
      pos: {x: 2.33, y: 1.885, z: 0}
    - serializedVersion: 2
      pos: {x: 2.18, y: 1.715, z: 0}
    - serializedVersion: 2
      pos: {x: 2.18, y: 1.235, z: 0}
    - serializedVersion: 2
      pos: {x: 2.01, y: -5.165, z: 0}
    - serializedVersion: 2
      pos: {x: 2.03, y: -5.435, z: 0}
    - serializedVersion: 2
      pos: {x: 2.03, y: -5.245, z: 0}
    - serializedVersion: 2
      pos: {x: 1.94, y: -5.565, z: 0}
    - serializedVersion: 2
      pos: {x: 1.83, y: -5.115, z: 0}
    - serializedVersion: 2
      pos: {x: 1.75, y: -5.615, z: 0}
    - serializedVersion: 2
      pos: {x: 1.66, y: -5.115, z: 0}
    - serializedVersion: 2
      pos: {x: 1.37, y: -5.255, z: 0}
    - serializedVersion: 2
      pos: {x: 1.37, y: -5.615, z: 0}
    - serializedVersion: 2
      pos: {x: -4.13, y: -5.345, z: 0}
    - serializedVersion: 2
      pos: {x: -4.14, y: -5.535, z: 0}
    - serializedVersion: 2
      pos: {x: -4.13, y: -5.475, z: 0}
    - serializedVersion: 2
      pos: {x: -4.16, y: -5.275, z: 0}
    - serializedVersion: 2
      pos: {x: -4.24, y: -5.595, z: 0}
    - serializedVersion: 2
      pos: {x: -4.27, y: -5.245, z: 0}
    - serializedVersion: 2
      pos: {x: -4.51, y: -5.245, z: 0}
    - serializedVersion: 2
      pos: {x: -4.52, y: -5.595, z: 0}
    - serializedVersion: 2
      pos: {x: -4.54, y: -5.265, z: 0}
    - serializedVersion: 2
      pos: {x: -4.54, y: -5.515, z: 0}
    - serializedVersion: 2
      pos: {x: -6.4, y: -5.055, z: 0}
    - serializedVersion: 2
      pos: {x: -6.45, y: -5.315, z: 0}
    - serializedVersion: 2
      pos: {x: -6.4, y: -5.275, z: 0}
    - serializedVersion: 2
      pos: {x: -6.46, y: -4.965, z: 0}
    - serializedVersion: 2
      pos: {x: -6.67, y: -4.965, z: 0}
    - serializedVersion: 2
      pos: {x: -6.67, y: -5.315, z: 0}
    - serializedVersion: 2
      pos: {x: -3.19, y: -4.765, z: 0}
    - serializedVersion: 2
      pos: {x: -3.19, y: -5.085, z: 0}
    - serializedVersion: 2
      pos: {x: -3.19, y: -4.805, z: 0}
    - serializedVersion: 2
      pos: {x: -3.22, y: -4.755, z: 0}
    - serializedVersion: 2
      pos: {x: -3.37, y: -5.085, z: 0}
    - serializedVersion: 2
      pos: {x: -3.42, y: -4.755, z: 0}
    - serializedVersion: 2
      pos: {x: -3.44, y: -5.025, z: 0}
    - serializedVersion: 2
      pos: {x: -3.45, y: -4.785, z: 0}
    - serializedVersion: 2
      pos: {x: -3.45, y: -4.975, z: 0}
    - serializedVersion: 2
      pos: {x: 0.24, y: -4.735, z: 0}
    - serializedVersion: 2
      pos: {x: 0.19, y: -5.045, z: 0}
    - serializedVersion: 2
      pos: {x: 0.24, y: -4.965, z: 0}
    - serializedVersion: 2
      pos: {x: 0.01, y: -4.595, z: 0}
    - serializedVersion: 2
      pos: {x: -0.27, y: -4.595, z: 0}
    - serializedVersion: 2
      pos: {x: -0.29, y: -5.045, z: 0}
    - serializedVersion: 2
      pos: {x: -0.35, y: -4.635, z: 0}
    - serializedVersion: 2
      pos: {x: -0.35, y: -4.895, z: 0}
    - serializedVersion: 2
      pos: {x: -0.36, y: -4.765, z: 0}
    - serializedVersion: 2
      pos: {x: -0.36, y: -4.835, z: 0}
    - serializedVersion: 2
      pos: {x: 3.25, y: -4.565, z: 0}
    - serializedVersion: 2
      pos: {x: 3.23, y: -4.895, z: 0}
    - serializedVersion: 2
      pos: {x: 3.25, y: -4.835, z: 0}
    - serializedVersion: 2
      pos: {x: 3.17, y: -4.525, z: 0}
    - serializedVersion: 2
      pos: {x: 3.14, y: -4.975, z: 0}
    - serializedVersion: 2
      pos: {x: 2.9, y: -4.525, z: 0}
    - serializedVersion: 2
      pos: {x: 2.89, y: -4.975, z: 0}
    - serializedVersion: 2
      pos: {x: 2.87, y: -4.535, z: 0}
    - serializedVersion: 2
      pos: {x: 2.85, y: -4.965, z: 0}
    - serializedVersion: 2
      pos: {x: 2.82, y: -4.665, z: 0}
    - serializedVersion: 2
      pos: {x: 2.82, y: -4.925, z: 0}
    - serializedVersion: 2
      pos: {x: -6.1, y: -4.615, z: 0}
    - serializedVersion: 2
      pos: {x: -6.02, y: -4.915, z: 0}
    - serializedVersion: 2
      pos: {x: -6.02, y: -4.665, z: 0}
    - serializedVersion: 2
      pos: {x: -6.11, y: -4.925, z: 0}
    - serializedVersion: 2
      pos: {x: -6.33, y: -4.615, z: 0}
    - serializedVersion: 2
      pos: {x: -6.34, y: -4.925, z: 0}
    - serializedVersion: 2
      pos: {x: -6.37, y: -4.705, z: 0}
    - serializedVersion: 2
      pos: {x: -6.37, y: -4.895, z: 0}
    - serializedVersion: 2
      pos: {x: -0.61, y: -3.855, z: 0}
    - serializedVersion: 2
      pos: {x: -0.55, y: -4.335, z: 0}
    - serializedVersion: 2
      pos: {x: -0.55, y: -3.935, z: 0}
    - serializedVersion: 2
      pos: {x: -0.72, y: -4.515, z: 0}
    - serializedVersion: 2
      pos: {x: -0.99, y: -3.855, z: 0}
    - serializedVersion: 2
      pos: {x: -1.01, y: -3.865, z: 0}
    - serializedVersion: 2
      pos: {x: -1.3, y: -4.255, z: 0}
    - serializedVersion: 2
      pos: {x: -1.3, y: -4.515, z: 0}
    - serializedVersion: 2
      pos: {x: -0.21, y: -4.165, z: 0}
    - serializedVersion: 2
      pos: {x: -0.15, y: -4.485, z: 0}
    - serializedVersion: 2
      pos: {x: -0.15, y: -4.205, z: 0}
    - serializedVersion: 2
      pos: {x: -0.41, y: -4.165, z: 0}
    - serializedVersion: 2
      pos: {x: -0.51, y: -4.265, z: 0}
    - serializedVersion: 2
      pos: {x: -0.51, y: -4.485, z: 0}
    - serializedVersion: 2
      pos: {x: 5.82, y: 0.815, z: 0}
    - serializedVersion: 2
      pos: {x: 5.85, y: 0.255, z: 0}
    - serializedVersion: 2
      pos: {x: 5.85, y: 0.765, z: 0}
    - serializedVersion: 2
      pos: {x: 5.72, y: 0.035, z: 0}
    - serializedVersion: 2
      pos: {x: 5.03, y: -0.125, z: 0}
    - serializedVersion: 2
      pos: {x: 4.98, y: 0.815, z: 0}
    - serializedVersion: 2
      pos: {x: 4.63, y: 0.685, z: 0}
    - serializedVersion: 2
      pos: {x: 4.63, y: -0.125, z: 0}
    - serializedVersion: 2
      pos: {x: 4.32, y: -1.975, z: 0}
    - serializedVersion: 2
      pos: {x: 4.28, y: -2.255, z: 0}
    - serializedVersion: 2
      pos: {x: 4.32, y: -2.135, z: 0}
    - serializedVersion: 2
      pos: {x: 4.27, y: -1.945, z: 0}
    - serializedVersion: 2
      pos: {x: 4.23, y: -1.915, z: 0}
    - serializedVersion: 2
      pos: {x: 4.19, y: -2.265, z: 0}
    - serializedVersion: 2
      pos: {x: 3.97, y: -1.915, z: 0}
    - serializedVersion: 2
      pos: {x: 3.95, y: -2.265, z: 0}
    - serializedVersion: 2
      pos: {x: 3.86, y: -2.015, z: 0}
    - serializedVersion: 2
      pos: {x: 3.86, y: -2.205, z: 0}
    - serializedVersion: 2
      pos: {x: 4.7, y: -3.655, z: 0}
    - serializedVersion: 2
      pos: {x: 4.88, y: -3.995, z: 0}
    - serializedVersion: 2
      pos: {x: 4.88, y: -3.705, z: 0}
    - serializedVersion: 2
      pos: {x: 4.61, y: -4.375, z: 0}
    - serializedVersion: 2
      pos: {x: 4.41, y: -4.445, z: 0}
    - serializedVersion: 2
      pos: {x: 4.04, y: -3.655, z: 0}
    - serializedVersion: 2
      pos: {x: 3.91, y: -3.715, z: 0}
    - serializedVersion: 2
      pos: {x: 3.68, y: -4.445, z: 0}
    - serializedVersion: 2
      pos: {x: 3.53, y: -4.105, z: 0}
    - serializedVersion: 2
      pos: {x: 3.53, y: -4.425, z: 0}
    - serializedVersion: 2
      pos: {x: 0.74, y: -3.375, z: 0}
    - serializedVersion: 2
      pos: {x: 0.76, y: -3.735, z: 0}
    - serializedVersion: 2
      pos: {x: 0.76, y: -3.435, z: 0}
    - serializedVersion: 2
      pos: {x: 0.38, y: -4.165, z: 0}
    - serializedVersion: 2
      pos: {x: 0.32, y: -3.375, z: 0}
    - serializedVersion: 2
      pos: {x: -0.14, y: -4.165, z: 0}
    - serializedVersion: 2
      pos: {x: -0.18, y: -3.605, z: 0}
    - serializedVersion: 2
      pos: {x: -0.18, y: -4.015, z: 0}
    - serializedVersion: 2
      pos: {x: 5.71, y: -3.875, z: 0}
    - serializedVersion: 2
      pos: {x: 5.73, y: -4.125, z: 0}
    - serializedVersion: 2
      pos: {x: 5.73, y: -4.005, z: 0}
    - serializedVersion: 2
      pos: {x: 5.68, y: -3.845, z: 0}
    - serializedVersion: 2
      pos: {x: 5.66, y: -4.125, z: 0}
    - serializedVersion: 2
      pos: {x: 5.62, y: -3.845, z: 0}
    - serializedVersion: 2
      pos: {x: 5.6, y: -3.915, z: 0}
    - serializedVersion: 2
      pos: {x: 5.6, y: -4.045, z: 0}
    - serializedVersion: 2
      pos: {x: -5.25, y: -3.545, z: 0}
    - serializedVersion: 2
      pos: {x: -5.22, y: -3.885, z: 0}
    - serializedVersion: 2
      pos: {x: -5.22, y: -3.595, z: 0}
    - serializedVersion: 2
      pos: {x: -5.4, y: -3.945, z: 0}
    - serializedVersion: 2
      pos: {x: -5.62, y: -3.545, z: 0}
    - serializedVersion: 2
      pos: {x: -5.67, y: -3.945, z: 0}
    - serializedVersion: 2
      pos: {x: -5.74, y: -3.575, z: 0}
    - serializedVersion: 2
      pos: {x: -5.74, y: -3.855, z: 0}
    - serializedVersion: 2
      pos: {x: 2.22, y: -3.485, z: 0}
    - serializedVersion: 2
      pos: {x: 2.13, y: -3.895, z: 0}
    - serializedVersion: 2
      pos: {x: 2.22, y: -3.735, z: 0}
    - serializedVersion: 2
      pos: {x: 2.1, y: -3.415, z: 0}
    - serializedVersion: 2
      pos: {x: 1.77, y: -3.415, z: 0}
    - serializedVersion: 2
      pos: {x: 1.64, y: -3.895, z: 0}
    - serializedVersion: 2
      pos: {x: 1.63, y: -3.605, z: 0}
    - serializedVersion: 2
      pos: {x: 1.63, y: -3.865, z: 0}
    - serializedVersion: 2
      pos: {x: -5.92, y: -3.455, z: 0}
    - serializedVersion: 2
      pos: {x: -5.97, y: -3.785, z: 0}
    - serializedVersion: 2
      pos: {x: -5.92, y: -3.695, z: 0}
    - serializedVersion: 2
      pos: {x: -5.99, y: -3.345, z: 0}
    - serializedVersion: 2
      pos: {x: -6.33, y: -3.785, z: 0}
    - serializedVersion: 2
      pos: {x: -6.37, y: -3.155, z: 0}
    - serializedVersion: 2
      pos: {x: -6.63, y: -3.155, z: 0}
    - serializedVersion: 2
      pos: {x: -6.65, y: -3.165, z: 0}
    - serializedVersion: 2
      pos: {x: -6.66, y: -3.215, z: 0}
    - serializedVersion: 2
      pos: {x: -6.66, y: -3.425, z: 0}
    - serializedVersion: 2
      pos: {x: -3.66, y: -3.325, z: 0}
    - serializedVersion: 2
      pos: {x: -3.73, y: -3.665, z: 0}
    - serializedVersion: 2
      pos: {x: -3.66, y: -3.625, z: 0}
    - serializedVersion: 2
      pos: {x: -4.13, y: -3.065, z: 0}
    - serializedVersion: 2
      pos: {x: -4.31, y: -3.665, z: 0}
    - serializedVersion: 2
      pos: {x: -4.41, y: -3.065, z: 0}
    - serializedVersion: 2
      pos: {x: -4.41, y: -3.475, z: 0}
    - serializedVersion: 2
      pos: {x: -0.99, y: -3.145, z: 0}
    - serializedVersion: 2
      pos: {x: -1.11, y: -3.595, z: 0}
    - serializedVersion: 2
      pos: {x: -0.99, y: -3.505, z: 0}
    - serializedVersion: 2
      pos: {x: -1.31, y: -2.965, z: 0}
    - serializedVersion: 2
      pos: {x: -1.62, y: -3.595, z: 0}
    - serializedVersion: 2
      pos: {x: -1.76, y: -2.965, z: 0}
    - serializedVersion: 2
      pos: {x: -1.85, y: -3.015, z: 0}
    - serializedVersion: 2
      pos: {x: -1.85, y: -3.485, z: 0}
    - serializedVersion: 2
      pos: {x: -2.92, y: -3.165, z: 0}
    - serializedVersion: 2
      pos: {x: -2.89, y: -3.455, z: 0}
    - serializedVersion: 2
      pos: {x: -2.89, y: -3.205, z: 0}
    - serializedVersion: 2
      pos: {x: -3.04, y: -3.535, z: 0}
    - serializedVersion: 2
      pos: {x: -3.2, y: -3.165, z: 0}
    - serializedVersion: 2
      pos: {x: -3.28, y: -3.535, z: 0}
    - serializedVersion: 2
      pos: {x: -3.29, y: -3.205, z: 0}
    - serializedVersion: 2
      pos: {x: -3.29, y: -3.515, z: 0}
    - serializedVersion: 2
      pos: {x: 3.22, y: -2.815, z: 0}
    - serializedVersion: 2
      pos: {x: 3.46, y: -3.275, z: 0}
    - serializedVersion: 2
      pos: {x: 3.46, y: -2.935, z: 0}
    - serializedVersion: 2
      pos: {x: 3.2, y: -3.375, z: 0}
    - serializedVersion: 2
      pos: {x: 2.75, y: -2.815, z: 0}
    - serializedVersion: 2
      pos: {x: 2.75, y: -3.375, z: 0}
    - serializedVersion: 2
      pos: {x: 2.64, y: -2.875, z: 0}
    - serializedVersion: 2
      pos: {x: 2.64, y: -3.235, z: 0}
    - serializedVersion: 2
      pos: {x: 2.22, y: -2.855, z: 0}
    - serializedVersion: 2
      pos: {x: 2.23, y: -3.115, z: 0}
    - serializedVersion: 2
      pos: {x: 2.23, y: -2.875, z: 0}
    - serializedVersion: 2
      pos: {x: 2.18, y: -3.225, z: 0}
    - serializedVersion: 2
      pos: {x: 1.84, y: -3.225, z: 0}
    - serializedVersion: 2
      pos: {x: 1.8, y: -3.215, z: 0}
    - serializedVersion: 2
      pos: {x: 1.77, y: -2.855, z: 0}
    - serializedVersion: 2
      pos: {x: 1.77, y: -3.125, z: 0}
    - serializedVersion: 2
      pos: {x: 1.49, y: -2.845, z: 0}
    - serializedVersion: 2
      pos: {x: 1.52, y: -3.105, z: 0}
    - serializedVersion: 2
      pos: {x: 1.52, y: -2.915, z: 0}
    - serializedVersion: 2
      pos: {x: 1.44, y: -3.165, z: 0}
    - serializedVersion: 2
      pos: {x: 1.24, y: -2.845, z: 0}
    - serializedVersion: 2
      pos: {x: 1.22, y: -3.165, z: 0}
    - serializedVersion: 2
      pos: {x: 1.17, y: -2.875, z: 0}
    - serializedVersion: 2
      pos: {x: 1.17, y: -3.145, z: 0}
    - serializedVersion: 2
      pos: {x: 5.69, y: -2.515, z: 0}
    - serializedVersion: 2
      pos: {x: 5.63, y: -2.915, z: 0}
    - serializedVersion: 2
      pos: {x: 5.69, y: -2.885, z: 0}
    - serializedVersion: 2
      pos: {x: 5.49, y: -2.265, z: 0}
    - serializedVersion: 2
      pos: {x: 5.13, y: -2.915, z: 0}
    - serializedVersion: 2
      pos: {x: 4.88, y: -2.265, z: 0}
    - serializedVersion: 2
      pos: {x: 4.88, y: -2.825, z: 0}
    - serializedVersion: 2
      pos: {x: 4.85, y: -2.355, z: 0}
    - serializedVersion: 2
      pos: {x: 4.85, y: -2.775, z: 0}
    - serializedVersion: 2
      pos: {x: -0.54, y: -1.515, z: 0}
    - serializedVersion: 2
      pos: {x: -0.5, y: -1.795, z: 0}
    - serializedVersion: 2
      pos: {x: -0.5, y: -1.585, z: 0}
    - serializedVersion: 2
      pos: {x: -0.58, y: -1.855, z: 0}
    - serializedVersion: 2
      pos: {x: -0.81, y: -1.855, z: 0}
    - serializedVersion: 2
      pos: {x: -0.84, y: -1.515, z: 0}
    - serializedVersion: 2
      pos: {x: -0.89, y: -1.835, z: 0}
    - serializedVersion: 2
      pos: {x: -0.91, y: -1.625, z: 0}
    - serializedVersion: 2
      pos: {x: -0.91, y: -1.805, z: 0}
    - serializedVersion: 2
      pos: {x: -1.38, y: -2.505, z: 0}
    - serializedVersion: 2
      pos: {x: -1.43, y: -2.765, z: 0}
    - serializedVersion: 2
      pos: {x: -1.38, y: -2.725, z: 0}
    - serializedVersion: 2
      pos: {x: -1.46, y: -2.465, z: 0}
    - serializedVersion: 2
      pos: {x: -1.58, y: -2.465, z: 0}
    - serializedVersion: 2
      pos: {x: -1.64, y: -2.765, z: 0}
    - serializedVersion: 2
      pos: {x: -1.65, y: -2.475, z: 0}
    - serializedVersion: 2
      pos: {x: -1.71, y: -2.545, z: 0}
    - serializedVersion: 2
      pos: {x: -1.71, y: -2.745, z: 0}
    - serializedVersion: 2
      pos: {x: -0.35, y: -2.245, z: 0}
    - serializedVersion: 2
      pos: {x: -0.44, y: -2.655, z: 0}
    - serializedVersion: 2
      pos: {x: -0.35, y: -2.615, z: 0}
    - serializedVersion: 2
      pos: {x: -0.55, y: -2.675, z: 0}
    - serializedVersion: 2
      pos: {x: -0.68, y: -2.245, z: 0}
    - serializedVersion: 2
      pos: {x: -0.76, y: -2.675, z: 0}
    - serializedVersion: 2
      pos: {x: -0.83, y: -2.415, z: 0}
    - serializedVersion: 2
      pos: {x: -0.83, y: -2.625, z: 0}
    - serializedVersion: 2
      pos: {x: -5.25, y: -1.965, z: 0}
    - serializedVersion: 2
      pos: {x: -5.22, y: -2.325, z: 0}
    - serializedVersion: 2
      pos: {x: -5.22, y: -2.035, z: 0}
    - serializedVersion: 2
      pos: {x: -5.31, y: -2.475, z: 0}
    - serializedVersion: 2
      pos: {x: -5.52, y: -2.545, z: 0}
    - serializedVersion: 2
      pos: {x: -5.63, y: -1.965, z: 0}
    - serializedVersion: 2
      pos: {x: -5.72, y: -2.545, z: 0}
    - serializedVersion: 2
      pos: {x: -5.78, y: -2.275, z: 0}
    - serializedVersion: 2
      pos: {x: -5.78, y: -2.495, z: 0}
    - serializedVersion: 2
      pos: {x: 1.17, y: -1.975, z: 0}
    - serializedVersion: 2
      pos: {x: 0.79, y: -2.535, z: 0}
    - serializedVersion: 2
      pos: {x: 1.17, y: -2.405, z: 0}
    - serializedVersion: 2
      pos: {x: 0.77, y: -1.975, z: 0}
    - serializedVersion: 2
      pos: {x: 0.59, y: -2.055, z: 0}
    - serializedVersion: 2
      pos: {x: 0.54, y: -2.535, z: 0}
    - serializedVersion: 2
      pos: {x: 0.5, y: -2.225, z: 0}
    - serializedVersion: 2
      pos: {x: 0.5, y: -2.495, z: 0}
    - serializedVersion: 2
      pos: {x: -4.8, y: 0.215, z: 0}
    - serializedVersion: 2
      pos: {x: -4.74, y: -0.105, z: 0}
    - serializedVersion: 2
      pos: {x: -4.74, y: 0.135, z: 0}
    - serializedVersion: 2
      pos: {x: -4.81, y: -0.215, z: 0}
    - serializedVersion: 2
      pos: {x: -5.19, y: 0.215, z: 0}
    - serializedVersion: 2
      pos: {x: -5.22, y: -0.215, z: 0}
    - serializedVersion: 2
      pos: {x: -5.28, y: 0.145, z: 0}
    - serializedVersion: 2
      pos: {x: -5.28, y: -0.115, z: 0}
    - serializedVersion: 2
      pos: {x: -5.46, y: -1.135, z: 0}
    - serializedVersion: 2
      pos: {x: -5.56, y: -1.395, z: 0}
    - serializedVersion: 2
      pos: {x: -5.46, y: -1.365, z: 0}
    - serializedVersion: 2
      pos: {x: -5.65, y: -0.935, z: 0}
    - serializedVersion: 2
      pos: {x: -5.78, y: -1.395, z: 0}
    - serializedVersion: 2
      pos: {x: -5.85, y: -0.935, z: 0}
    - serializedVersion: 2
      pos: {x: -5.9, y: -1.255, z: 0}
    - serializedVersion: 2
      pos: {x: -5.91, y: -0.995, z: 0}
    - serializedVersion: 2
      pos: {x: -5.91, y: -1.205, z: 0}
    - serializedVersion: 2
      pos: {x: -5.94, y: -2.235, z: 0}
    - serializedVersion: 2
      pos: {x: -5.95, y: -2.525, z: 0}
    - serializedVersion: 2
      pos: {x: -5.94, y: -2.505, z: 0}
    - serializedVersion: 2
      pos: {x: -6.07, y: -2.125, z: 0}
    - serializedVersion: 2
      pos: {x: -6.18, y: -2.105, z: 0}
    - serializedVersion: 2
      pos: {x: -6.35, y: -2.525, z: 0}
    - serializedVersion: 2
      pos: {x: -6.44, y: -2.105, z: 0}
    - serializedVersion: 2
      pos: {x: -6.51, y: -2.185, z: 0}
    - serializedVersion: 2
      pos: {x: -6.51, y: -2.465, z: 0}
    - serializedVersion: 2
      pos: {x: -2.67, y: -3.815, z: 0}
    - serializedVersion: 2
      pos: {x: -2.67, y: -4.395, z: 0}
    - serializedVersion: 2
      pos: {x: -3, y: -3.635, z: 0}
    - serializedVersion: 2
      pos: {x: -3.62, y: -3.635, z: 0}
    - serializedVersion: 2
      pos: {x: -3.66, y: -4.705, z: 0}
    - serializedVersion: 2
      pos: {x: -3.99, y: -3.875, z: 0}
    - serializedVersion: 2
      pos: {x: -3.99, y: -4.365, z: 0}
    - serializedVersion: 2
      pos: {x: -2.54, y: -2.105, z: 0}
    - serializedVersion: 2
      pos: {x: -2.42, y: -2.155, z: 0}
    - serializedVersion: 2
      pos: {x: -2.43, y: -2.125, z: 0}
    - serializedVersion: 2
      pos: {x: -2.56, y: -2.155, z: 0}
    - serializedVersion: 2
      pos: {x: -2.6, y: -2.105, z: 0}
    - serializedVersion: 2
      pos: {x: -2.21, y: -1.785, z: 0}
    - serializedVersion: 2
      pos: {x: -2.12, y: -2.155, z: 0}
    - serializedVersion: 2
      pos: {x: -2.12, y: -1.905, z: 0}
    - serializedVersion: 2
      pos: {x: -2.61, y: -1.785, z: 0}
    - serializedVersion: 2
      pos: {x: -2.61, y: -2.095, z: 0}
    - serializedVersion: 2
      pos: {x: -2.33, y: -2.365, z: 0}
    - serializedVersion: 2
      pos: {x: -2.35, y: -2.675, z: 0}
    - serializedVersion: 2
      pos: {x: -2.33, y: -2.605, z: 0}
    - serializedVersion: 2
      pos: {x: -2.8, y: -2.675, z: 0}
    - serializedVersion: 2
      pos: {x: -2.88, y: -2.105, z: 0}
    - serializedVersion: 2
      pos: {x: -2.88, y: -2.425, z: 0}
    - serializedVersion: 2
      pos: {x: -2.48, y: -4.705, z: 0}
    - serializedVersion: 2
      pos: {x: -2.45, y: -5.105, z: 0}
    - serializedVersion: 2
      pos: {x: -2.45, y: -4.765, z: 0}
    - serializedVersion: 2
      pos: {x: -2.67, y: -4.445, z: 0}
    - serializedVersion: 2
      pos: {x: -2.97, y: -5.105, z: 0}
    - serializedVersion: 2
      pos: {x: -3.1, y: -4.855, z: 0}
    - serializedVersion: 2
      pos: {x: -3.13, y: -4.775, z: 0}
    - serializedVersion: 2
      pos: {x: -2.98, y: -2.205, z: 0}
    - serializedVersion: 2
      pos: {x: -3.04, y: -2.485, z: 0}
    - serializedVersion: 2
      pos: {x: -2.98, y: -2.425, z: 0}
    - serializedVersion: 2
      pos: {x: -3.05, y: -2.075, z: 0}
    - serializedVersion: 2
      pos: {x: -3.44, y: -2.075, z: 0}
    - serializedVersion: 2
      pos: {x: -3.44, y: -2.485, z: 0}
    - serializedVersion: 2
      pos: {x: -3.48, y: -2.115, z: 0}
    - serializedVersion: 2
      pos: {x: -3.48, y: -2.375, z: 0}
    - serializedVersion: 2
      pos: {x: -3.1, y: -4.925, z: 0}
    - serializedVersion: 2
      pos: {x: -3.63, y: -2.175, z: 0}
    - serializedVersion: 2
      pos: {x: -3.61, y: -2.345, z: 0}
    - serializedVersion: 2
      pos: {x: -3.61, y: -2.235, z: 0}
    - serializedVersion: 2
      pos: {x: -3.66, y: -2.455, z: 0}
    - serializedVersion: 2
      pos: {x: -3.68, y: -2.165, z: 0}
    - serializedVersion: 2
      pos: {x: -3.7, y: -2.465, z: 0}
    - serializedVersion: 2
      pos: {x: -3.9, y: -2.165, z: 0}
    - serializedVersion: 2
      pos: {x: -3.9, y: -2.465, z: 0}
    - serializedVersion: 2
      pos: {x: -3.94, y: -2.245, z: 0}
    - serializedVersion: 2
      pos: {x: -3.94, y: -2.435, z: 0}
    - serializedVersion: 2
      pos: {x: 3.67, y: -1.485, z: 0}
    - serializedVersion: 2
      pos: {x: 3.78, y: -1.795, z: 0}
    - serializedVersion: 2
      pos: {x: 3.78, y: -1.535, z: 0}
    - serializedVersion: 2
      pos: {x: 3.56, y: -1.955, z: 0}
    - serializedVersion: 2
      pos: {x: 3.33, y: -1.485, z: 0}
    - serializedVersion: 2
      pos: {x: 3.25, y: -2.115, z: 0}
    - serializedVersion: 2
      pos: {x: 3.11, y: -2.115, z: 0}
    - serializedVersion: 2
      pos: {x: 3.06, y: -1.795, z: 0}
    - serializedVersion: 2
      pos: {x: 3.05, y: -1.855, z: 0}
    - serializedVersion: 2
      pos: {x: 3.05, y: -2.095, z: 0}
    - serializedVersion: 2
      pos: {x: 0.36, y: -1.065, z: 0}
    - serializedVersion: 2
      pos: {x: 0.38, y: -1.225, z: 0}
    - serializedVersion: 2
      pos: {x: 0.38, y: -1.065, z: 0}
    - serializedVersion: 2
      pos: {x: 0.36, y: -1.245, z: 0}
    - serializedVersion: 2
      pos: {x: 0.38, y: -0.995, z: 0}
    - serializedVersion: 2
      pos: {x: 0.29, y: -1.295, z: 0}
    - serializedVersion: 2
      pos: {x: 0.22, y: -0.915, z: 0}
    - serializedVersion: 2
      pos: {x: 0.12, y: -1.295, z: 0}
    - serializedVersion: 2
      pos: {x: -0.02, y: -1.275, z: 0}
    - serializedVersion: 2
      pos: {x: -0.06, y: -0.915, z: 0}
    - serializedVersion: 2
      pos: {x: -0.06, y: -1.175, z: 0}
    - serializedVersion: 2
      pos: {x: 0.95, y: -1.185, z: 0}
    - serializedVersion: 2
      pos: {x: 0.85, y: -1.495, z: 0}
    - serializedVersion: 2
      pos: {x: 0.95, y: -1.455, z: 0}
    - serializedVersion: 2
      pos: {x: 0.66, y: -1.065, z: 0}
    - serializedVersion: 2
      pos: {x: 0.4, y: -1.495, z: 0}
    - serializedVersion: 2
      pos: {x: 0.36, y: -1.445, z: 0}
    - serializedVersion: 2
      pos: {x: -0.09, y: -1.675, z: 0}
    - serializedVersion: 2
      pos: {x: -0.08, y: -1.745, z: 0}
    - serializedVersion: 2
      pos: {x: -0.08, y: -1.705, z: 0}
    - serializedVersion: 2
      pos: {x: -0.1, y: -1.755, z: 0}
    - serializedVersion: 2
      pos: {x: -0.11, y: -1.645, z: 0}
    - serializedVersion: 2
      pos: {x: -0.14, y: -1.755, z: 0}
    - serializedVersion: 2
      pos: {x: -0.15, y: -1.645, z: 0}
    - serializedVersion: 2
      pos: {x: -0.17, y: -1.655, z: 0}
    - serializedVersion: 2
      pos: {x: -0.17, y: -1.685, z: 0}
    - serializedVersion: 2
      pos: {x: -3.1, y: -5.045, z: 0}
    - serializedVersion: 2
      pos: {x: -4.1, y: -0.985, z: 0}
    - serializedVersion: 2
      pos: {x: -4.24, y: -1.435, z: 0}
    - serializedVersion: 2
      pos: {x: -4.1, y: -1.265, z: 0}
    - serializedVersion: 2
      pos: {x: -4.32, y: -1.455, z: 0}
    - serializedVersion: 2
      pos: {x: -4.48, y: -0.985, z: 0}
    - serializedVersion: 2
      pos: {x: -4.64, y: -1.455, z: 0}
    - serializedVersion: 2
      pos: {x: -4.67, y: -1.175, z: 0}
    - serializedVersion: 2
      pos: {x: -4.67, y: -1.395, z: 0}
    - serializedVersion: 2
      pos: {x: 5.6, y: -1.075, z: 0}
    - serializedVersion: 2
      pos: {x: 5.55, y: -1.385, z: 0}
    - serializedVersion: 2
      pos: {x: 5.6, y: -1.305, z: 0}
    - serializedVersion: 2
      pos: {x: 5.35, y: -0.935, z: 0}
    - serializedVersion: 2
      pos: {x: 5.07, y: -1.385, z: 0}
    - serializedVersion: 2
      pos: {x: 4.98, y: -0.935, z: 0}
    - serializedVersion: 2
      pos: {x: 4.93, y: -1.045, z: 0}
    - serializedVersion: 2
      pos: {x: 4.93, y: -1.265, z: 0}
    - serializedVersion: 2
      pos: {x: 2.39, y: 0.605, z: 0}
    - serializedVersion: 2
      pos: {x: 2.71, y: -0.065, z: 0}
    - serializedVersion: 2
      pos: {x: 2.71, y: 0.345, z: 0}
    - serializedVersion: 2
      pos: {x: 2.18, y: -0.065, z: 0}
    - serializedVersion: 2
      pos: {x: 1.92, y: 0.605, z: 0}
    - serializedVersion: 2
      pos: {x: 1.92, y: 0.215, z: 0}
    - serializedVersion: 2
      pos: {x: 4.56, y: 0.565, z: 0}
    - serializedVersion: 2
      pos: {x: 4.59, y: 0.255, z: 0}
    - serializedVersion: 2
      pos: {x: 4.59, y: 0.505, z: 0}
    - serializedVersion: 2
      pos: {x: 4.48, y: 0.135, z: 0}
    - serializedVersion: 2
      pos: {x: 4.32, y: 0.565, z: 0}
    - serializedVersion: 2
      pos: {x: 4.14, y: 0.135, z: 0}
    - serializedVersion: 2
      pos: {x: 4.07, y: 0.385, z: 0}
    - serializedVersion: 2
      pos: {x: 4.07, y: 0.155, z: 0}
    - serializedVersion: 2
      pos: {x: 6.67, y: 0.635, z: 0}
    - serializedVersion: 2
      pos: {x: 6.66, y: 0.175, z: 0}
    - serializedVersion: 2
      pos: {x: 6.67, y: 0.175, z: 0}
    - serializedVersion: 2
      pos: {x: 6.61, y: 0.635, z: 0}
    - serializedVersion: 2
      pos: {x: 6.6, y: 0.185, z: 0}
    - serializedVersion: 2
      pos: {x: 6.55, y: 0.625, z: 0}
    - serializedVersion: 2
      pos: {x: 6.55, y: 0.225, z: 0}
    - serializedVersion: 2
      pos: {x: 1.85, y: 1.665, z: 0}
    - serializedVersion: 2
      pos: {x: 1.95, y: 1.425, z: 0}
    - serializedVersion: 2
      pos: {x: 1.95, y: 1.645, z: 0}
    - serializedVersion: 2
      pos: {x: 1.82, y: 1.295, z: 0}
    - serializedVersion: 2
      pos: {x: 1.63, y: 1.665, z: 0}
    - serializedVersion: 2
      pos: {x: 1.55, y: 1.645, z: 0}
    - serializedVersion: 2
      pos: {x: 1.54, y: 1.295, z: 0}
    - serializedVersion: 2
      pos: {x: 1.5, y: 1.505, z: 0}
    - serializedVersion: 2
      pos: {x: 1.5, y: 1.315, z: 0}
    - serializedVersion: 2
      pos: {x: 6.64, y: 3.865, z: 0}
    - serializedVersion: 2
      pos: {x: 6.67, y: 3.695, z: 0}
    - serializedVersion: 2
      pos: {x: 6.67, y: 3.865, z: 0}
    - serializedVersion: 2
      pos: {x: 6.48, y: 3.645, z: 0}
    - serializedVersion: 2
      pos: {x: 6.37, y: 3.805, z: 0}
    - serializedVersion: 2
      pos: {x: 6.29, y: 3.645, z: 0}
    - serializedVersion: 2
      pos: {x: 6.28, y: 3.735, z: 0}
    - serializedVersion: 2
      pos: {x: 6.28, y: 3.665, z: 0}
    - serializedVersion: 2
      pos: {x: 6.26, y: 5.495, z: 0}
    - serializedVersion: 2
      pos: {x: 6.21, y: 5.075, z: 0}
    - serializedVersion: 2
      pos: {x: 6.26, y: 5.245, z: 0}
    - serializedVersion: 2
      pos: {x: 6.15, y: 5.505, z: 0}
    - serializedVersion: 2
      pos: {x: 4.97, y: 4.355, z: 0}
    - serializedVersion: 2
      pos: {x: 4.88, y: 5.505, z: 0}
    - serializedVersion: 2
      pos: {x: 4.55, y: 4.965, z: 0}
    - serializedVersion: 2
      pos: {x: 4.55, y: 4.355, z: 0}
    - serializedVersion: 2
      pos: {x: 5.95, y: 4.835, z: 0}
    - serializedVersion: 2
      pos: {x: 5.97, y: 4.785, z: 0}
    - serializedVersion: 2
      pos: {x: 5.97, y: 4.805, z: 0}
    - serializedVersion: 2
      pos: {x: 5.88, y: 4.695, z: 0}
    - serializedVersion: 2
      pos: {x: 5.82, y: 4.835, z: 0}
    - serializedVersion: 2
      pos: {x: 5.79, y: 4.695, z: 0}
    - serializedVersion: 2
      pos: {x: 5.77, y: 4.785, z: 0}
    - serializedVersion: 2
      pos: {x: 5.77, y: 4.705, z: 0}
    - serializedVersion: 2
      pos: {x: 6.67, y: 5.585, z: 0}
    - serializedVersion: 2
      pos: {x: 6.66, y: 5.505, z: 0}
    - serializedVersion: 2
      pos: {x: 6.67, y: 5.505, z: 0}
    - serializedVersion: 2
      pos: {x: 6.65, y: 5.585, z: 0}
    - serializedVersion: 2
      pos: {x: 6.64, y: 5.565, z: 0}
    - serializedVersion: 2
      pos: {x: 6.64, y: 5.515, z: 0}
    indices:
    - 475
    - 474
    - 471
    - 473
    - 471
    - 474
    - 470
    - 471
    - 473
    - 472
    - 471
    - 470
    - 469
    - 468
    - 467
    - 466
    - 467
    - 468
    - 465
    - 467
    - 466
    - 462
    - 465
    - 466
    - 463
    - 465
    - 462
    - 464
    - 463
    - 462
    - 461
    - 460
    - 458
    - 459
    - 458
    - 460
    - 457
    - 458
    - 459
    - 455
    - 458
    - 457
    - 454
    - 455
    - 457
    - 456
    - 455
    - 454
    - 453
    - 452
    - 451
    - 450
    - 451
    - 452
    - 449
    - 451
    - 450
    - 446
    - 449
    - 450
    - 447
    - 449
    - 446
    - 448
    - 447
    - 446
    - 445
    - 444
    - 443
    - 442
    - 443
    - 444
    - 440
    - 443
    - 442
    - 441
    - 440
    - 442
    - 437
    - 440
    - 441
    - 438
    - 440
    - 437
    - 439
    - 438
    - 437
    - 436
    - 435
    - 434
    - 433
    - 434
    - 435
    - 431
    - 434
    - 433
    - 430
    - 431
    - 433
    - 432
    - 431
    - 430
    - 429
    - 428
    - 427
    - 426
    - 427
    - 428
    - 425
    - 427
    - 426
    - 422
    - 425
    - 426
    - 423
    - 425
    - 422
    - 424
    - 423
    - 422
    - 421
    - 420
    - 419
    - 416
    - 419
    - 420
    - 417
    - 419
    - 416
    - 418
    - 417
    - 416
    - 415
    - 414
    - 412
    - 413
    - 412
    - 414
    - 411
    - 412
    - 413
    - 409
    - 412
    - 411
    - 408
    - 409
    - 411
    - 410
    - 409
    - 408
    - 407
    - 406
    - 405
    - 404
    - 405
    - 406
    - 403
    - 405
    - 404
    - 400
    - 403
    - 404
    - 401
    - 403
    - 400
    - 402
    - 401
    - 400
    - 68
    - 69
    - 399
    - 352
    - 399
    - 69
    - 398
    - 397
    - 395
    - 396
    - 395
    - 397
    - 394
    - 395
    - 396
    - 393
    - 395
    - 394
    - 390
    - 393
    - 394
    - 391
    - 393
    - 390
    - 392
    - 391
    - 390
    - 389
    - 376
    - 388
    - 374
    - 388
    - 376
    - 375
    - 388
    - 374
    - 387
    - 388
    - 375
    - 385
    - 388
    - 387
    - 384
    - 385
    - 387
    - 386
    - 385
    - 384
    - 383
    - 382
    - 381
    - 379
    - 381
    - 382
    - 380
    - 381
    - 379
    - 378
    - 380
    - 379
    - 377
    - 378
    - 379
    - 373
    - 378
    - 377
    - 376
    - 378
    - 373
    - 375
    - 373
    - 377
    - 376
    - 373
    - 374
    - 375
    - 374
    - 373
    - 372
    - 371
    - 369
    - 370
    - 369
    - 371
    - 367
    - 369
    - 370
    - 368
    - 369
    - 367
    - 366
    - 368
    - 367
    - 363
    - 366
    - 367
    - 364
    - 366
    - 363
    - 365
    - 364
    - 363
    - 362
    - 361
    - 360
    - 359
    - 360
    - 361
    - 358
    - 360
    - 359
    - 357
    - 358
    - 359
    - 356
    - 358
    - 357
    - 353
    - 356
    - 357
    - 354
    - 356
    - 353
    - 355
    - 354
    - 353
    - 352
    - 342
    - 341
    - 69
    - 67
    - 352
    - 343
    - 352
    - 67
    - 342
    - 352
    - 343
    - 351
    - 350
    - 349
    - 348
    - 349
    - 350
    - 345
    - 349
    - 348
    - 347
    - 345
    - 348
    - 344
    - 345
    - 347
    - 346
    - 345
    - 344
    - 67
    - 11
    - 343
    - 8
    - 343
    - 11
    - 342
    - 343
    - 8
    - 341
    - 342
    - 8
    - 338
    - 341
    - 8
    - 340
    - 338
    - 8
    - 337
    - 338
    - 340
    - 339
    - 338
    - 337
    - 336
    - 335
    - 334
    - 325
    - 334
    - 335
    - 332
    - 334
    - 325
    - 324
    - 332
    - 325
    - 322
    - 332
    - 324
    - 331
    - 332
    - 322
    - 333
    - 332
    - 331
    - 330
    - 329
    - 325
    - 326
    - 325
    - 329
    - 321
    - 325
    - 326
    - 323
    - 321
    - 326
    - 322
    - 323
    - 326
    - 327
    - 322
    - 326
    - 328
    - 327
    - 326
    - 325
    - 321
    - 324
    - 322
    - 324
    - 321
    - 323
    - 322
    - 321
    - 320
    - 319
    - 318
    - 317
    - 318
    - 319
    - 11
    - 318
    - 317
    - 10
    - 11
    - 317
    - 316
    - 10
    - 317
    - 7
    - 10
    - 316
    - 9
    - 7
    - 316
    - 314
    - 9
    - 316
    - 8
    - 9
    - 314
    - 315
    - 8
    - 314
    - 313
    - 312
    - 310
    - 311
    - 310
    - 312
    - 309
    - 310
    - 311
    - 306
    - 310
    - 309
    - 308
    - 306
    - 309
    - 305
    - 306
    - 308
    - 307
    - 306
    - 305
    - 304
    - 303
    - 302
    - 301
    - 302
    - 303
    - 300
    - 302
    - 301
    - 299
    - 300
    - 301
    - 297
    - 300
    - 299
    - 296
    - 297
    - 299
    - 298
    - 297
    - 296
    - 295
    - 294
    - 293
    - 292
    - 293
    - 294
    - 291
    - 293
    - 292
    - 288
    - 291
    - 292
    - 289
    - 291
    - 288
    - 290
    - 289
    - 288
    - 287
    - 286
    - 285
    - 284
    - 285
    - 286
    - 281
    - 285
    - 284
    - 283
    - 281
    - 284
    - 280
    - 281
    - 283
    - 282
    - 281
    - 280
    - 279
    - 278
    - 277
    - 276
    - 277
    - 278
    - 275
    - 277
    - 276
    - 271
    - 275
    - 276
    - 274
    - 275
    - 271
    - 272
    - 274
    - 271
    - 273
    - 272
    - 271
    - 270
    - 269
    - 268
    - 267
    - 268
    - 269
    - 266
    - 268
    - 267
    - 263
    - 266
    - 267
    - 264
    - 266
    - 263
    - 265
    - 264
    - 263
    - 262
    - 261
    - 259
    - 260
    - 259
    - 261
    - 258
    - 259
    - 260
    - 255
    - 259
    - 258
    - 257
    - 255
    - 258
    - 254
    - 255
    - 257
    - 256
    - 255
    - 254
    - 253
    - 252
    - 251
    - 250
    - 251
    - 252
    - 249
    - 251
    - 250
    - 245
    - 249
    - 250
    - 248
    - 249
    - 245
    - 246
    - 248
    - 245
    - 247
    - 246
    - 245
    - 244
    - 243
    - 242
    - 241
    - 242
    - 243
    - 240
    - 242
    - 241
    - 239
    - 240
    - 241
    - 237
    - 240
    - 239
    - 236
    - 237
    - 239
    - 238
    - 237
    - 236
    - 235
    - 234
    - 233
    - 232
    - 233
    - 234
    - 231
    - 233
    - 232
    - 228
    - 231
    - 232
    - 229
    - 231
    - 228
    - 230
    - 229
    - 228
    - 227
    - 226
    - 225
    - 220
    - 225
    - 226
    - 224
    - 225
    - 220
    - 223
    - 224
    - 220
    - 221
    - 223
    - 220
    - 222
    - 221
    - 220
    - 219
    - 218
    - 217
    - 216
    - 217
    - 218
    - 215
    - 217
    - 216
    - 212
    - 215
    - 216
    - 213
    - 215
    - 212
    - 214
    - 213
    - 212
    - 211
    - 210
    - 209
    - 208
    - 209
    - 210
    - 207
    - 209
    - 208
    - 204
    - 207
    - 208
    - 205
    - 207
    - 204
    - 206
    - 205
    - 204
    - 203
    - 202
    - 200
    - 201
    - 200
    - 202
    - 199
    - 200
    - 201
    - 197
    - 200
    - 199
    - 196
    - 197
    - 199
    - 198
    - 197
    - 196
    - 195
    - 194
    - 193
    - 192
    - 193
    - 194
    - 190
    - 193
    - 192
    - 189
    - 190
    - 192
    - 191
    - 190
    - 189
    - 188
    - 187
    - 183
    - 186
    - 183
    - 187
    - 185
    - 183
    - 186
    - 184
    - 183
    - 185
    - 182
    - 183
    - 184
    - 180
    - 183
    - 182
    - 179
    - 180
    - 182
    - 181
    - 180
    - 179
    - 178
    - 177
    - 176
    - 175
    - 176
    - 177
    - 172
    - 176
    - 175
    - 174
    - 172
    - 175
    - 171
    - 172
    - 174
    - 173
    - 172
    - 171
    - 170
    - 169
    - 168
    - 167
    - 168
    - 169
    - 166
    - 168
    - 167
    - 163
    - 166
    - 167
    - 164
    - 166
    - 163
    - 165
    - 164
    - 163
    - 162
    - 161
    - 159
    - 160
    - 159
    - 161
    - 158
    - 159
    - 160
    - 156
    - 159
    - 158
    - 155
    - 156
    - 158
    - 157
    - 156
    - 155
    - 154
    - 153
    - 152
    - 151
    - 152
    - 153
    - 150
    - 152
    - 151
    - 147
    - 150
    - 151
    - 148
    - 150
    - 147
    - 149
    - 148
    - 147
    - 146
    - 145
    - 144
    - 143
    - 144
    - 145
    - 141
    - 144
    - 143
    - 142
    - 141
    - 143
    - 137
    - 141
    - 142
    - 140
    - 141
    - 137
    - 138
    - 140
    - 137
    - 139
    - 138
    - 137
    - 136
    - 135
    - 134
    - 133
    - 134
    - 135
    - 132
    - 134
    - 133
    - 131
    - 132
    - 133
    - 128
    - 132
    - 131
    - 130
    - 128
    - 131
    - 127
    - 128
    - 130
    - 129
    - 128
    - 127
    - 126
    - 125
    - 123
    - 124
    - 123
    - 125
    - 119
    - 123
    - 124
    - 122
    - 123
    - 119
    - 120
    - 122
    - 119
    - 121
    - 120
    - 119
    - 118
    - 117
    - 114
    - 116
    - 114
    - 117
    - 113
    - 114
    - 116
    - 115
    - 114
    - 113
    - 112
    - 111
    - 108
    - 110
    - 108
    - 111
    - 109
    - 108
    - 110
    - 105
    - 108
    - 109
    - 106
    - 108
    - 105
    - 107
    - 106
    - 105
    - 104
    - 103
    - 102
    - 101
    - 102
    - 103
    - 100
    - 102
    - 101
    - 97
    - 100
    - 101
    - 98
    - 100
    - 97
    - 99
    - 98
    - 97
    - 96
    - 95
    - 94
    - 93
    - 94
    - 95
    - 92
    - 94
    - 93
    - 91
    - 92
    - 93
    - 90
    - 92
    - 91
    - 89
    - 90
    - 91
    - 87
    - 90
    - 89
    - 86
    - 87
    - 89
    - 88
    - 87
    - 86
    - 85
    - 84
    - 83
    - 82
    - 83
    - 84
    - 81
    - 83
    - 82
    - 80
    - 81
    - 82
    - 77
    - 81
    - 80
    - 79
    - 77
    - 80
    - 76
    - 77
    - 79
    - 78
    - 77
    - 76
    - 75
    - 74
    - 73
    - 72
    - 73
    - 74
    - 71
    - 73
    - 72
    - 70
    - 71
    - 72
    - 68
    - 71
    - 70
    - 67
    - 68
    - 70
    - 69
    - 68
    - 67
    - 66
    - 65
    - 62
    - 64
    - 62
    - 65
    - 61
    - 62
    - 64
    - 63
    - 62
    - 61
    - 60
    - 59
    - 58
    - 57
    - 58
    - 59
    - 55
    - 58
    - 57
    - 56
    - 55
    - 57
    - 54
    - 55
    - 56
    - 52
    - 55
    - 54
    - 51
    - 52
    - 54
    - 53
    - 52
    - 51
    - 50
    - 49
    - 47
    - 48
    - 47
    - 49
    - 46
    - 47
    - 48
    - 45
    - 47
    - 46
    - 42
    - 45
    - 46
    - 43
    - 45
    - 42
    - 44
    - 43
    - 42
    - 41
    - 40
    - 38
    - 39
    - 38
    - 40
    - 35
    - 38
    - 39
    - 36
    - 38
    - 35
    - 37
    - 36
    - 35
    - 34
    - 33
    - 31
    - 32
    - 31
    - 33
    - 30
    - 31
    - 32
    - 26
    - 31
    - 30
    - 29
    - 26
    - 30
    - 28
    - 26
    - 29
    - 25
    - 26
    - 28
    - 27
    - 26
    - 25
    - 24
    - 23
    - 19
    - 22
    - 19
    - 23
    - 21
    - 19
    - 22
    - 18
    - 19
    - 21
    - 20
    - 19
    - 18
    - 17
    - 16
    - 13
    - 15
    - 13
    - 16
    - 12
    - 13
    - 15
    - 14
    - 13
    - 12
    - 11
    - 10
    - 8
    - 7
    - 8
    - 10
    - 9
    - 8
    - 7
    - 6
    - 5
    - 1
    - 4
    - 1
    - 5
    - 3
    - 1
    - 4
    - 0
    - 1
    - 3
    - 2
    - 1
    - 0
    textureRect:
      serializedVersion: 2
      x: 0
      y: 0
      width: 1334
      height: 1121.8507
    textureRectOffset: {x: 0, y: 0}
    atlasRectOffset: {x: -1, y: -1}
    settingsRaw: 64
    uvTransform: {x: 100, y: 667, z: 100, w: 563.5}
