%YAML 1.1
%TAG !u! tag:unity3d.com,2011:
--- !u!213 &21300000
Sprite:
  m_ObjectHideFlags: 0
  m_PrefabParentObject: {fileID: 0}
  m_PrefabInternal: {fileID: 0}
  m_Name: KiraraFantasiaLogo
  m_Rect:
    serializedVersion: 2
    x: 3.0761204
    y: 3.0761204
    width: 878.8478
    height: 386.84778
  m_Offset: {x: -0.49999964, y: -1.0000106}
  m_Border: {x: 0, y: 0, z: 0, w: 0}
  m_PixelsToUnits: 100
  m_Pivot: {x: 0.49943107, y: 0.49741498}
  m_Extrude: 1
  m_IsPolygon: 0
  m_AtlasName:
  m_PackingTag:
  m_RD:
    texture: {fileID: 2800000, guid: 0149cde70dcffde46a2b9dda04e87f4d, type: 3}
    alphaTexture: {fileID: 0}
    vertices:
    - serializedVersion: 2
      pos: {x: -4.25, y: 0.945, z: 0}
    - serializedVersion: 2
      pos: {x: -4.24, y: 0.115, z: 0}
    - serializedVersion: 2
      pos: {x: -4.23, y: 1.035, z: 0}
    - serializedVersion: 2
      pos: {x: -4.3, y: 0.735, z: 0}
    - serializedVersion: 2
      pos: {x: -4.3, y: 0.375, z: 0}
    - serializedVersion: 2
      pos: {x: 2.74, y: 1.515, z: 0}
    - serializedVersion: 2
      pos: {x: 2.69, y: -1.925, z: 0}
    - serializedVersion: 2
      pos: {x: 2.74, y: 1.505, z: 0}
    - serializedVersion: 2
      pos: {x: 2.61, y: 1.555, z: 0}
    - serializedVersion: 2
      pos: {x: 2.46, y: 1.575, z: 0}
    - serializedVersion: 2
      pos: {x: 2.35, y: -1.835, z: 0}
    - serializedVersion: 2
      pos: {x: 2.31, y: 1.535, z: 0}
    - serializedVersion: 2
      pos: {x: 2.28, y: -1.785, z: 0}
    - serializedVersion: 2
      pos: {x: 2.18, y: 1.655, z: 0}
    - serializedVersion: 2
      pos: {x: 2.14, y: -1.745, z: 0}
    - serializedVersion: 2
      pos: {x: 2.07, y: 1.685, z: 0}
    - serializedVersion: 2
      pos: {x: 1.99, y: -1.755, z: 0}
    - serializedVersion: 2
      pos: {x: 1.85, y: -1.755, z: 0}
    - serializedVersion: 2
      pos: {x: 1.73, y: -1.745, z: 0}
    - serializedVersion: 2
      pos: {x: 1.38, y: 1.835, z: 0}
    - serializedVersion: 2
      pos: {x: 1.26, y: 1.845, z: 0}
    - serializedVersion: 2
      pos: {x: 1.22, y: 1.855, z: 0}
    - serializedVersion: 2
      pos: {x: 1.13, y: 1.875, z: 0}
    - serializedVersion: 2
      pos: {x: 0.92, y: 1.905, z: 0}
    - serializedVersion: 2
      pos: {x: 0.85, y: 1.925, z: 0}
    - serializedVersion: 2
      pos: {x: 0.7, y: 1.935, z: 0}
    - serializedVersion: 2
      pos: {x: 0.46, y: 1.935, z: 0}
    - serializedVersion: 2
      pos: {x: 0.4, y: 1.945, z: 0}
    - serializedVersion: 2
      pos: {x: 0, y: -1.745, z: 0}
    - serializedVersion: 2
      pos: {x: -0.1, y: 1.945, z: 0}
    - serializedVersion: 2
      pos: {x: -0.2, y: 1.915, z: 0}
    - serializedVersion: 2
      pos: {x: -0.21, y: 1.935, z: 0}
    - serializedVersion: 2
      pos: {x: -0.35, y: 1.945, z: 0}
    - serializedVersion: 2
      pos: {x: -0.47, y: 1.905, z: 0}
    - serializedVersion: 2
      pos: {x: -0.57, y: 1.915, z: 0}
    - serializedVersion: 2
      pos: {x: -0.57, y: -1.755, z: 0}
    - serializedVersion: 2
      pos: {x: -0.64, y: 1.905, z: 0}
    - serializedVersion: 2
      pos: {x: -0.77, y: 1.875, z: 0}
    - serializedVersion: 2
      pos: {x: -0.79, y: -1.755, z: 0}
    - serializedVersion: 2
      pos: {x: -0.87, y: 1.875, z: 0}
    - serializedVersion: 2
      pos: {x: -0.89, y: -1.745, z: 0}
    - serializedVersion: 2
      pos: {x: -0.92, y: 1.865, z: 0}
    - serializedVersion: 2
      pos: {x: -0.96, y: 1.855, z: 0}
    - serializedVersion: 2
      pos: {x: -1.15, y: 1.825, z: 0}
    - serializedVersion: 2
      pos: {x: -1.3, y: -1.755, z: 0}
    - serializedVersion: 2
      pos: {x: -1.43, y: 1.765, z: 0}
    - serializedVersion: 2
      pos: {x: -1.48, y: -1.745, z: 0}
    - serializedVersion: 2
      pos: {x: -1.51, y: 1.745, z: 0}
    - serializedVersion: 2
      pos: {x: -1.76, y: 1.695, z: 0}
    - serializedVersion: 2
      pos: {x: -1.98, y: 1.625, z: 0}
    - serializedVersion: 2
      pos: {x: -2.15, y: 1.505, z: 0}
    - serializedVersion: 2
      pos: {x: -2.18, y: 1.475, z: 0}
    - serializedVersion: 2
      pos: {x: -2.26, y: 1.515, z: 0}
    - serializedVersion: 2
      pos: {x: -2.27, y: -1.745, z: 0}
    - serializedVersion: 2
      pos: {x: -2.38, y: -1.785, z: 0}
    - serializedVersion: 2
      pos: {x: -2.52, y: -1.835, z: 0}
    - serializedVersion: 2
      pos: {x: -2.56, y: 1.575, z: 0}
    - serializedVersion: 2
      pos: {x: -2.6, y: -1.855, z: 0}
    - serializedVersion: 2
      pos: {x: -2.73, y: -1.885, z: 0}
    - serializedVersion: 2
      pos: {x: -2.84, y: 1.575, z: 0}
    - serializedVersion: 2
      pos: {x: -2.89, y: -1.925, z: 0}
    - serializedVersion: 2
      pos: {x: -2.98, y: 1.545, z: 0}
    - serializedVersion: 2
      pos: {x: -3.06, y: 1.525, z: 0}
    - serializedVersion: 2
      pos: {x: -3.06, y: 1.515, z: 0}
    - serializedVersion: 2
      pos: {x: -3.12, y: -1.925, z: 0}
    - serializedVersion: 2
      pos: {x: -3.33, y: -1.875, z: 0}
    - serializedVersion: 2
      pos: {x: -3.52, y: 1.515, z: 0}
    - serializedVersion: 2
      pos: {x: -3.57, y: 1.505, z: 0}
    - serializedVersion: 2
      pos: {x: -3.57, y: -1.825, z: 0}
    - serializedVersion: 2
      pos: {x: -3.66, y: 1.485, z: 0}
    - serializedVersion: 2
      pos: {x: -3.66, y: -1.775, z: 0}
    - serializedVersion: 2
      pos: {x: -3.81, y: 1.445, z: 0}
    - serializedVersion: 2
      pos: {x: -3.86, y: 1.425, z: 0}
    - serializedVersion: 2
      pos: {x: -3.92, y: -1.595, z: 0}
    - serializedVersion: 2
      pos: {x: -4.01, y: 1.325, z: 0}
    - serializedVersion: 2
      pos: {x: -4.06, y: -1.455, z: 0}
    - serializedVersion: 2
      pos: {x: -4.12, y: 1.225, z: 0}
    - serializedVersion: 2
      pos: {x: -4.21, y: 1.075, z: 0}
    - serializedVersion: 2
      pos: {x: -4.21, y: -1.245, z: 0}
    - serializedVersion: 2
      pos: {x: -4.28, y: -1.135, z: 0}
    - serializedVersion: 2
      pos: {x: -4.29, y: -0.025, z: 0}
    - serializedVersion: 2
      pos: {x: -4.3, y: -1.035, z: 0}
    - serializedVersion: 2
      pos: {x: -4.33, y: -0.145, z: 0}
    - serializedVersion: 2
      pos: {x: -4.34, y: -0.225, z: 0}
    - serializedVersion: 2
      pos: {x: -4.36, y: -0.785, z: 0}
    - serializedVersion: 2
      pos: {x: -4.39, y: -0.435, z: 0}
    - serializedVersion: 2
      pos: {x: -4.39, y: -0.665, z: 0}
    - serializedVersion: 2
      pos: {x: 4.4, y: 0.725, z: 0}
    - serializedVersion: 2
      pos: {x: 4.39, y: -0.245, z: 0}
    - serializedVersion: 2
      pos: {x: 4.4, y: -0.185, z: 0}
    - serializedVersion: 2
      pos: {x: 4.37, y: 0.865, z: 0}
    - serializedVersion: 2
      pos: {x: 4.34, y: 1.025, z: 0}
    - serializedVersion: 2
      pos: {x: 4.29, y: -0.665, z: 0}
    - serializedVersion: 2
      pos: {x: 4.26, y: -0.755, z: 0}
    - serializedVersion: 2
      pos: {x: 4.25, y: 1.175, z: 0}
    - serializedVersion: 2
      pos: {x: 4.18, y: -0.935, z: 0}
    - serializedVersion: 2
      pos: {x: 4.15, y: 1.285, z: 0}
    - serializedVersion: 2
      pos: {x: 4.14, y: -1.055, z: 0}
    - serializedVersion: 2
      pos: {x: 4.1, y: -1.225, z: 0}
    - serializedVersion: 2
      pos: {x: 4.08, y: -1.315, z: 0}
    - serializedVersion: 2
      pos: {x: 3.99, y: -1.455, z: 0}
    - serializedVersion: 2
      pos: {x: 3.94, y: 1.425, z: 0}
    - serializedVersion: 2
      pos: {x: 3.91, y: -1.535, z: 0}
    - serializedVersion: 2
      pos: {x: 3.73, y: -1.665, z: 0}
    - serializedVersion: 2
      pos: {x: 3.6, y: 1.505, z: 0}
    - serializedVersion: 2
      pos: {x: 3.52, y: -1.725, z: 0}
    - serializedVersion: 2
      pos: {x: 3.39, y: -1.745, z: 0}
    - serializedVersion: 2
      pos: {x: 3.31, y: -1.755, z: 0}
    - serializedVersion: 2
      pos: {x: 3.21, y: -1.755, z: 0}
    - serializedVersion: 2
      pos: {x: 3.08, y: -1.835, z: 0}
    - serializedVersion: 2
      pos: {x: 2.97, y: -1.865, z: 0}
    - serializedVersion: 2
      pos: {x: 2.8, y: -1.915, z: 0}
    indices:
    - 6
    - 7
    - 111
    - 104
    - 111
    - 7
    - 110
    - 111
    - 104
    - 109
    - 110
    - 104
    - 108
    - 109
    - 104
    - 107
    - 108
    - 104
    - 106
    - 107
    - 104
    - 105
    - 106
    - 104
    - 103
    - 105
    - 104
    - 101
    - 103
    - 104
    - 102
    - 103
    - 101
    - 100
    - 102
    - 101
    - 96
    - 100
    - 101
    - 99
    - 100
    - 96
    - 98
    - 99
    - 96
    - 97
    - 98
    - 96
    - 95
    - 97
    - 96
    - 94
    - 95
    - 96
    - 93
    - 95
    - 94
    - 91
    - 93
    - 94
    - 92
    - 93
    - 91
    - 88
    - 92
    - 91
    - 90
    - 88
    - 91
    - 87
    - 88
    - 90
    - 89
    - 88
    - 87
    - 86
    - 85
    - 84
    - 83
    - 84
    - 85
    - 81
    - 84
    - 83
    - 82
    - 81
    - 83
    - 80
    - 81
    - 82
    - 79
    - 81
    - 80
    - 1
    - 79
    - 80
    - 78
    - 79
    - 1
    - 2
    - 78
    - 1
    - 77
    - 78
    - 2
    - 75
    - 78
    - 77
    - 76
    - 75
    - 77
    - 74
    - 75
    - 76
    - 73
    - 75
    - 74
    - 72
    - 73
    - 74
    - 70
    - 73
    - 72
    - 71
    - 70
    - 72
    - 69
    - 70
    - 71
    - 68
    - 70
    - 69
    - 67
    - 68
    - 69
    - 65
    - 68
    - 67
    - 66
    - 65
    - 67
    - 63
    - 65
    - 66
    - 64
    - 65
    - 63
    - 60
    - 64
    - 63
    - 62
    - 60
    - 63
    - 61
    - 60
    - 62
    - 59
    - 60
    - 61
    - 58
    - 60
    - 59
    - 56
    - 58
    - 59
    - 57
    - 58
    - 56
    - 55
    - 57
    - 56
    - 52
    - 55
    - 56
    - 54
    - 55
    - 52
    - 53
    - 54
    - 52
    - 46
    - 53
    - 52
    - 51
    - 46
    - 52
    - 50
    - 46
    - 51
    - 49
    - 46
    - 50
    - 48
    - 46
    - 49
    - 47
    - 46
    - 48
    - 45
    - 46
    - 47
    - 44
    - 46
    - 45
    - 43
    - 44
    - 45
    - 40
    - 44
    - 43
    - 42
    - 40
    - 43
    - 41
    - 40
    - 42
    - 39
    - 40
    - 41
    - 38
    - 40
    - 39
    - 37
    - 38
    - 39
    - 35
    - 38
    - 37
    - 36
    - 35
    - 37
    - 34
    - 35
    - 36
    - 28
    - 35
    - 34
    - 33
    - 28
    - 34
    - 32
    - 28
    - 33
    - 31
    - 28
    - 32
    - 30
    - 28
    - 31
    - 29
    - 28
    - 30
    - 27
    - 28
    - 29
    - 18
    - 28
    - 27
    - 26
    - 18
    - 27
    - 25
    - 18
    - 26
    - 24
    - 18
    - 25
    - 23
    - 18
    - 24
    - 22
    - 18
    - 23
    - 21
    - 18
    - 22
    - 20
    - 18
    - 21
    - 19
    - 18
    - 20
    - 15
    - 18
    - 19
    - 17
    - 18
    - 15
    - 16
    - 17
    - 15
    - 14
    - 16
    - 15
    - 13
    - 14
    - 15
    - 12
    - 14
    - 13
    - 11
    - 12
    - 13
    - 10
    - 12
    - 11
    - 9
    - 10
    - 11
    - 6
    - 10
    - 9
    - 8
    - 6
    - 9
    - 5
    - 6
    - 8
    - 7
    - 6
    - 5
    - 4
    - 3
    - 1
    - 0
    - 1
    - 3
    - 2
    - 1
    - 0
    textureRect:
      serializedVersion: 2
      x: 3.0761204
      y: 3.0761204
      width: 878.8478
      height: 386.84778
    textureRectOffset: {x: 0, y: 0}
    atlasRectOffset: {x: -1, y: -1}
    settingsRaw: 64
    uvTransform: {x: 100, y: 442, z: 100, w: 195.5}
