%YAML 1.1
%TAG !u! tag:unity3d.com,2011:
--- !u!213 &21300000
Sprite:
  m_ObjectHideFlags: 0
  m_PrefabParentObject: {fileID: 0}
  m_PrefabInternal: {fileID: 0}
  m_Name: AddButtonPush
  m_Rect:
    serializedVersion: 2
    x: 1908.0762
    y: 167
    width: 42.92388
    height: 41.923878
  m_Offset: {x: -1.5381132, y: 2.038061}
  m_Border: {x: 0, y: 0, z: 0, w: 0}
  m_PixelsToUnits: 100
  m_Pivot: {x: 0.4641665, y: 0.54861337}
  m_Extrude: 1
  m_IsPolygon: 0
  m_AtlasName:
  m_PackingTag:
  m_RD:
    texture: {fileID: 2800000, guid: ccd74e88b70831640a081f009ebcef70, type: 3}
    alphaTexture: {fileID: 0}
    vertices:
    - serializedVersion: 2
      pos: {x: 0.23, y: 0.06, z: 0}
    - serializedVersion: 2
      pos: {x: 0.2, y: -0.23, z: 0}
    - serializedVersion: 2
      pos: {x: 0.23, y: -0.22, z: 0}
    - serializedVersion: 2
      pos: {x: 0.12, y: 0.19, z: 0}
    - serializedVersion: 2
      pos: {x: -0.1, y: 0.19, z: 0}
    - serializedVersion: 2
      pos: {x: -0.13, y: -0.23, z: 0}
    - serializedVersion: 2
      pos: {x: -0.19, y: -0.16, z: 0}
    - serializedVersion: 2
      pos: {x: -0.2, y: 0.16, z: 0}
    - serializedVersion: 2
      pos: {x: -0.2, y: -0.09, z: 0}
    indices:
    - 8
    - 7
    - 6
    - 4
    - 6
    - 7
    - 5
    - 6
    - 4
    - 1
    - 5
    - 4
    - 3
    - 1
    - 4
    - 0
    - 1
    - 3
    - 2
    - 1
    - 0
    textureRect:
      serializedVersion: 2
      x: 1908.0762
      y: 167
      width: 42.92388
      height: 41.923878
    textureRectOffset: {x: 0, y: 0}
    atlasRectOffset: {x: -1, y: -1}
    settingsRaw: 64
    uvTransform: {x: 100, y: 1928, z: 100, w: 190}
