%YAML 1.1
%TAG !u! tag:unity3d.com,2011:
--- !u!213 &21300000
Sprite:
  m_ObjectHideFlags: 0
  m_PrefabParentObject: {fileID: 0}
  m_PrefabInternal: {fileID: 0}
  m_Name: CommonSmallButtonPush
  m_Rect:
    serializedVersion: 2
    x: 669.02673
    y: 173
    width: 47.973248
    height: 47.973248
  m_Offset: {x: -3.0133572, y: 3.0133772}
  m_Border: {x: 19.973267, y: 0, z: 25.99998, w: 0}
  m_PixelsToUnits: 100
  m_Pivot: {x: 0.43718672, y: 0.5628137}
  m_Extrude: 1
  m_IsPolygon: 0
  m_AtlasName:
  m_PackingTag:
  m_RD:
    texture: {fileID: 2800000, guid: ccd74e88b70831640a081f009ebcef70, type: 3}
    alphaTexture: {fileID: 0}
    vertices:
    - serializedVersion: 2
      pos: {x: 0.2, y: 0.21, z: 0}
    - serializedVersion: 2
      pos: {x: 0.27, y: -0.27, z: 0}
    - serializedVersion: 2
      pos: {x: 0.27, y: 0.18, z: 0}
    - serializedVersion: 2
      pos: {x: -0.12, y: 0.21, z: 0}
    - serializedVersion: 2
      pos: {x: -0.17, y: -0.27, z: 0}
    - serializedVersion: 2
      pos: {x: -0.21, y: 0.18, z: 0}
    - serializedVersion: 2
      pos: {x: -0.21, y: -0.16, z: 0}
    indices:
    - 6
    - 5
    - 4
    - 3
    - 4
    - 5
    - 1
    - 4
    - 3
    - 0
    - 1
    - 3
    - 2
    - 1
    - 0
    textureRect:
      serializedVersion: 2
      x: 669.02673
      y: 173
      width: 47.973248
      height: 47.973248
    textureRectOffset: {x: 0, y: 0}
    atlasRectOffset: {x: -1, y: -1}
    settingsRaw: 64
    uvTransform: {x: 100, y: 690, z: 100, w: 200}
