%YAML 1.1
%TAG !u! tag:unity3d.com,2011:
--- !u!213 &21300000
Sprite:
  m_ObjectHideFlags: 0
  m_PrefabParentObject: {fileID: 0}
  m_PrefabInternal: {fileID: 0}
  m_Name: GachaTitle_Circle
  m_Rect:
    serializedVersion: 2
    x: 620
    y: 90
    width: 25
    height: 25
  m_Offset: {x: 0, y: 0}
  m_Border: {x: 0, y: 0, z: 0, w: 0}
  m_PixelsToUnits: 100
  m_Pivot: {x: 0.5, y: 0.5}
  m_Extrude: 1
  m_IsPolygon: 0
  m_AtlasName:
  m_PackingTag:
  m_RD:
    texture: {fileID: 2800000, guid: 34b87a6c357fcc241aca27dc6d533153, type: 3}
    alphaTexture: {fileID: 0}
    vertices:
    - serializedVersion: 2
      pos: {x: -0.125, y: 0.125, z: 0}
    - serializedVersion: 2
      pos: {x: 0.125, y: 0.125, z: 0}
    - serializedVersion: 2
      pos: {x: -0.125, y: -0.125, z: 0}
    - serializedVersion: 2
      pos: {x: 0.125, y: -0.125, z: 0}
    indices:
    - 0
    - 1
    - 2
    - 2
    - 1
    - 3
    textureRect:
      serializedVersion: 2
      x: 620
      y: 90
      width: 25
      height: 25
    textureRectOffset: {x: 0, y: 0}
    atlasRectOffset: {x: -1, y: -1}
    settingsRaw: 64
    uvTransform: {x: 100, y: 632.5, z: 100, w: 102.5}
