%YAML 1.1
%TAG !u! tag:unity3d.com,2011:
--- !u!213 &21300000
Sprite:
  m_ObjectHideFlags: 0
  m_PrefabParentObject: {fileID: 0}
  m_PrefabInternal: {fileID: 0}
  m_Name: IconFrame
  m_Rect:
    serializedVersion: 2
    x: 148
    y: 797
    width: 128
    height: 128
  m_Offset: {x: 0, y: 0}
  m_Border: {x: 0, y: 0, z: 0, w: 0}
  m_PixelsToUnits: 100
  m_Pivot: {x: 0.5, y: 0.5}
  m_Extrude: 1
  m_IsPolygon: 0
  m_AtlasName:
  m_PackingTag:
  m_RD:
    texture: {fileID: 2800000, guid: ccd74e88b70831640a081f009ebcef70, type: 3}
    alphaTexture: {fileID: 0}
    vertices:
    - serializedVersion: 2
      pos: {x: 0.64, y: 0.64, z: 0}
    - serializedVersion: 2
      pos: {x: 0.54, y: 0.32, z: 0}
    - serializedVersion: 2
      pos: {x: 0.64, y: -0.64, z: 0}
    - serializedVersion: 2
      pos: {x: 0.48, y: 0.36, z: 0}
    - serializedVersion: 2
      pos: {x: 0.26, y: 0.44, z: 0}
    - serializedVersion: 2
      pos: {x: 0.03, y: 0.49, z: 0}
    - serializedVersion: 2
      pos: {x: -0.24, y: 0.52, z: 0}
    - serializedVersion: 2
      pos: {x: -0.53, y: 0.53, z: 0}
    - serializedVersion: 2
      pos: {x: -0.64, y: 0.64, z: 0}
    - serializedVersion: 2
      pos: {x: -0.53, y: -0.33, z: 0}
    - serializedVersion: 2
      pos: {x: 0.54, y: -0.55, z: 0}
    - serializedVersion: 2
      pos: {x: 0.42, y: -0.54, z: 0}
    - serializedVersion: 2
      pos: {x: -0.09, y: -0.49, z: 0}
    - serializedVersion: 2
      pos: {x: -0.64, y: -0.64, z: 0}
    - serializedVersion: 2
      pos: {x: -0.49, y: -0.36, z: 0}
    indices:
    - 8
    - 9
    - 13
    - 14
    - 13
    - 9
    - 12
    - 13
    - 14
    - 2
    - 13
    - 12
    - 11
    - 2
    - 12
    - 10
    - 2
    - 11
    - 1
    - 2
    - 10
    - 0
    - 7
    - 8
    - 9
    - 8
    - 7
    - 6
    - 7
    - 0
    - 5
    - 6
    - 0
    - 4
    - 5
    - 0
    - 3
    - 4
    - 0
    - 1
    - 3
    - 0
    - 2
    - 1
    - 0
    textureRect:
      serializedVersion: 2
      x: 148
      y: 797
      width: 128
      height: 128
    textureRectOffset: {x: 0, y: 0}
    atlasRectOffset: {x: -1, y: -1}
    settingsRaw: 64
    uvTransform: {x: 100, y: 212, z: 100, w: 861}
