%YAML 1.1
%TAG !u! tag:unity3d.com,2011:
--- !u!213 &21300000
Sprite:
  m_ObjectHideFlags: 0
  m_PrefabParentObject: {fileID: 0}
  m_PrefabInternal: {fileID: 0}
  m_Name: Knob
  m_Rect:
    serializedVersion: 2
    x: 12.026751
    y: 12.026751
    width: 39.946495
    height: 39.946495
  m_Offset: {x: 2.3809966E-06, y: 2.3809966E-06}
  m_Border: {x: 0, y: 0, z: 0, w: 0}
  m_PixelsToUnits: 200
  m_Pivot: {x: 0.50000006, y: 0.50000006}
  m_Extrude: 1
  m_IsPolygon: 0
  m_AtlasName:
  m_PackingTag:
  m_RD:
    texture: {fileID: 2800000, guid: cbd618e6e79769c4593c1fc525e20d9d, type: 3}
    alphaTexture: {fileID: 0}
    vertices:
    - serializedVersion: 2
      pos: {x: 0.1, y: 0.05, z: 0}
    - serializedVersion: 2
      pos: {x: 0.095, y: -0.1, z: 0}
    - serializedVersion: 2
      pos: {x: 0.1, y: -0.085, z: 0}
    - serializedVersion: 2
      pos: {x: 0.085, y: 0.1, z: 0}
    - serializedVersion: 2
      pos: {x: -0.05, y: 0.1, z: 0}
    - serializedVersion: 2
      pos: {x: -0.08, y: -0.1, z: 0}
    - serializedVersion: 2
      pos: {x: -0.095, y: 0.07, z: 0}
    - serializedVersion: 2
      pos: {x: -0.1, y: 0.03, z: 0}
    - serializedVersion: 2
      pos: {x: -0.1, y: -0.055, z: 0}
    indices:
    - 8
    - 7
    - 5
    - 6
    - 5
    - 7
    - 4
    - 5
    - 6
    - 1
    - 5
    - 4
    - 3
    - 1
    - 4
    - 0
    - 1
    - 3
    - 2
    - 1
    - 0
    textureRect:
      serializedVersion: 2
      x: 12.026751
      y: 12.026751
      width: 39.946495
      height: 39.946495
    textureRectOffset: {x: 0, y: 0}
    atlasRectOffset: {x: -1, y: -1}
    settingsRaw: 64
    uvTransform: {x: 200, y: 32, z: 200, w: 32}
