%YAML 1.1
%TAG !u! tag:unity3d.com,2011:
--- !u!213 &21300000
Sprite:
  m_ObjectHideFlags: 0
  m_PrefabParentObject: {fileID: 0}
  m_PrefabInternal: {fileID: 0}
  m_Name: ShortCutMissionIcon
  m_Rect:
    serializedVersion: 2
    x: 729.01294
    y: 153.02675
    width: 82.950806
    height: 71.89713
  m_Offset: {x: -0.48834142, y: 2.5246851}
  m_Border: {x: 0, y: 0, z: 0, w: 0}
  m_PixelsToUnits: 100
  m_Pivot: {x: 0.49411288, y: 0.53511524}
  m_Extrude: 1
  m_IsPolygon: 0
  m_AtlasName:
  m_PackingTag:
  m_RD:
    texture: {fileID: 2800000, guid: ccd74e88b70831640a081f009ebcef70, type: 3}
    alphaTexture: {fileID: 0}
    vertices:
    - serializedVersion: 2
      pos: {x: -0.29, y: -0.155, z: 0}
    - serializedVersion: 2
      pos: {x: -0.15, y: -0.165, z: 0}
    - serializedVersion: 2
      pos: {x: -0.1, y: -0.155, z: 0}
    - serializedVersion: 2
      pos: {x: -0.29, y: -0.165, z: 0}
    - serializedVersion: 2
      pos: {x: 0.21, y: 0.335, z: 0}
    - serializedVersion: 2
      pos: {x: 0.23, y: 0.245, z: 0}
    - serializedVersion: 2
      pos: {x: 0.25, y: 0.325, z: 0}
    - serializedVersion: 2
      pos: {x: 0.17, y: 0.095, z: 0}
    - serializedVersion: 2
      pos: {x: 0.01, y: -0.155, z: 0}
    - serializedVersion: 2
      pos: {x: -0.01, y: -0.115, z: 0}
    - serializedVersion: 2
      pos: {x: -0.29, y: 0.335, z: 0}
    - serializedVersion: 2
      pos: {x: 0.26, y: -0.155, z: 0}
    - serializedVersion: 2
      pos: {x: 0.01, y: -0.165, z: 0}
    - serializedVersion: 2
      pos: {x: 0.26, y: -0.165, z: 0}
    - serializedVersion: 2
      pos: {x: 0.19, y: 0.095, z: 0}
    - serializedVersion: 2
      pos: {x: 0.26, y: 0.075, z: 0}
    - serializedVersion: 2
      pos: {x: 0.35, y: -0.155, z: 0}
    - serializedVersion: 2
      pos: {x: 0.3, y: -0.275, z: 0}
    - serializedVersion: 2
      pos: {x: 0.33, y: -0.245, z: 0}
    - serializedVersion: 2
      pos: {x: 0.37, y: -0.205, z: 0}
    - serializedVersion: 2
      pos: {x: 0.42, y: -0.285, z: 0}
    - serializedVersion: 2
      pos: {x: 0.42, y: -0.235, z: 0}
    - serializedVersion: 2
      pos: {x: 0.37, y: -0.365, z: 0}
    - serializedVersion: 2
      pos: {x: 0.36, y: -0.205, z: 0}
    - serializedVersion: 2
      pos: {x: 0.34, y: -0.225, z: 0}
    - serializedVersion: 2
      pos: {x: 0.34, y: -0.245, z: 0}
    - serializedVersion: 2
      pos: {x: 0.33, y: -0.385, z: 0}
    - serializedVersion: 2
      pos: {x: -0.36, y: -0.385, z: 0}
    - serializedVersion: 2
      pos: {x: -0.41, y: -0.155, z: 0}
    - serializedVersion: 2
      pos: {x: -0.41, y: -0.345, z: 0}
    indices:
    - 29
    - 28
    - 27
    - 0
    - 27
    - 28
    - 3
    - 27
    - 0
    - 27
    - 3
    - 26
    - 1
    - 26
    - 3
    - 2
    - 26
    - 1
    - 12
    - 26
    - 2
    - 8
    - 12
    - 2
    - 13
    - 26
    - 12
    - 11
    - 26
    - 13
    - 17
    - 26
    - 11
    - 25
    - 26
    - 17
    - 22
    - 26
    - 25
    - 24
    - 22
    - 25
    - 23
    - 22
    - 24
    - 19
    - 22
    - 23
    - 20
    - 22
    - 19
    - 21
    - 20
    - 19
    - 11
    - 16
    - 17
    - 18
    - 17
    - 16
    - 8
    - 7
    - 11
    - 14
    - 11
    - 7
    - 15
    - 11
    - 14
    - 8
    - 11
    - 12
    - 13
    - 12
    - 11
    - 0
    - 10
    - 2
    - 4
    - 2
    - 10
    - 9
    - 2
    - 4
    - 8
    - 9
    - 4
    - 7
    - 8
    - 4
    - 5
    - 7
    - 4
    - 6
    - 5
    - 4
    - 3
    - 0
    - 1
    - 2
    - 1
    - 0
    textureRect:
      serializedVersion: 2
      x: 729.01294
      y: 153.02675
      width: 82.950806
      height: 71.89713
    textureRectOffset: {x: 0, y: 0}
    atlasRectOffset: {x: -1, y: -1}
    settingsRaw: 64
    uvTransform: {x: 100, y: 770, z: 100, w: 191.5}
