%YAML 1.1
%TAG !u! tag:unity3d.com,2011:
--- !u!213 &21300000
Sprite:
  m_ObjectHideFlags: 0
  m_PrefabParentObject: {fileID: 0}
  m_PrefabInternal: {fileID: 0}
  m_Name: TutorialSlideArrowMask
  m_Rect:
    serializedVersion: 2
    x: 127.07612
    y: 188.05132
    width: 88.87257
    height: 53.921936
  m_Offset: {x: -2.5124016, y: 0.48771775}
  m_Border: {x: 67.92388, y: 0, z: 18.948685, w: 0}
  m_PixelsToUnits: 100
  m_Pivot: {x: 0.4717303, y: 0.5090449}
  m_Extrude: 1
  m_IsPolygon: 0
  m_AtlasName:
  m_PackingTag:
  m_RD:
    texture: {fileID: 2800000, guid: 714280be6468a5b4282a61f3899feab8, type: 3}
    alphaTexture: {fileID: 0}
    vertices:
    - serializedVersion: 2
      pos: {x: 0.47, y: 0.095, z: 0}
    - serializedVersion: 2
      pos: {x: 0.45, y: -0.085, z: 0}
    - serializedVersion: 2
      pos: {x: 0.47, y: -0.055, z: 0}
    - serializedVersion: 2
      pos: {x: 0.41, y: -0.135, z: 0}
    - serializedVersion: 2
      pos: {x: 0.18, y: 0.265, z: 0}
    - serializedVersion: 2
      pos: {x: 0.15, y: -0.275, z: 0}
    - serializedVersion: 2
      pos: {x: -0.04, y: 0.265, z: 0}
    - serializedVersion: 2
      pos: {x: -0.12, y: -0.275, z: 0}
    - serializedVersion: 2
      pos: {x: -0.41, y: -0.055, z: 0}
    - serializedVersion: 2
      pos: {x: -0.42, y: 0.035, z: 0}
    - serializedVersion: 2
      pos: {x: -0.42, y: -0.025, z: 0}
    indices:
    - 10
    - 9
    - 8
    - 6
    - 8
    - 9
    - 7
    - 8
    - 6
    - 5
    - 7
    - 6
    - 4
    - 5
    - 6
    - 3
    - 5
    - 4
    - 0
    - 3
    - 4
    - 1
    - 3
    - 0
    - 2
    - 1
    - 0
    textureRect:
      serializedVersion: 2
      x: 127.07612
      y: 188.05132
      width: 88.87257
      height: 53.921936
    textureRectOffset: {x: 0, y: 0}
    atlasRectOffset: {x: -1, y: -1}
    settingsRaw: 64
    uvTransform: {x: 100, y: 169, z: 100, w: 215.5}
